%YAML 1.1
%TAG !u! tag:unity3d.com,2011:
--- !u!74 &7400000
AnimationClip:
  m_ObjectHideFlags: 0
  m_PrefabParentObject: {fileID: 0}
  m_PrefabInternal: {fileID: 0}
  m_Name: Attack
  serializedVersion: 6
  m_Legacy: 0
  m_Compressed: 0
  m_UseHighQualityCurve: 1
  m_RotationCurves: []
  m_CompressedRotationCurves: []
  m_EulerCurves: []
  m_PositionCurves: []
  m_ScaleCurves: []
  m_FloatCurves: []
  m_PPtrCurves:
  - curve:
    - time: 0
      value: {fileID: 21300000, guid: 192eccda280e2ec4c99be851889e09ed, type: 3}
    - time: 0.09090909
      value: {fileID: 21300000, guid: 97c6ebd3ca4f107448b3b2d9b16e5d6d, type: 3}
    - time: 0.18181819
      value: {fileID: 21300000, guid: 0ffdf19da652afe48a12609e61ed7b94, type: 3}
    - time: 0.27272728
      value: {fileID: 21300000, guid: a1b4b1f3ee0e4664aada556dbd4c246d, type: 3}
    - time: 0.36363637
      value: {fileID: 21300000, guid: 2d634060b61eb214a949fcd4b88122d9, type: 3}
    - time: 0.45454547
      value: {fileID: 21300000, guid: 0c673844191288945b65f8f4ea934f2f, type: 3}
    attribute: m_Sprite
    path: 
    classID: 212
    script: {fileID: 0}
  m_SampleRate: 11
  m_WrapMode: 0
  m_Bounds:
    m_Center: {x: 0, y: 0, z: 0}
    m_Extent: {x: 0, y: 0, z: 0}
  m_ClipBindingConstant:
    genericBindings:
    - serializedVersion: 2
      path: 0
      attribute: 0
      script: {fileID: 0}
      typeID: 212
      customType: 23
      isPPtrCurve: 1
    pptrCurveMapping:
    - {fileID: 21300000, guid: 192eccda280e2ec4c99be851889e09ed, type: 3}
    - {fileID: 21300000, guid: 97c6ebd3ca4f107448b3b2d9b16e5d6d, type: 3}
    - {fileID: 21300000, guid: 0ffdf19da652afe48a12609e61ed7b94, type: 3}
    - {fileID: 21300000, guid: a1b4b1f3ee0e4664aada556dbd4c246d, type: 3}
    - {fileID: 21300000, guid: 2d634060b61eb214a949fcd4b88122d9, type: 3}
    - {fileID: 21300000, guid: 0c673844191288945b65f8f4ea934f2f, type: 3}
  m_AnimationClipSettings:
    serializedVersion: 2
    m_AdditiveReferencePoseClip: {fileID: 0}
    m_AdditiveReferencePoseTime: 0
    m_StartTime: 0
    m_StopTime: 0.54545456
    m_OrientationOffsetY: 0
    m_Level: 0
    m_CycleOffset: 0
    m_HasAdditiveReferencePose: 0
    m_LoopTime: 1
    m_LoopBlend: 0
    m_LoopBlendOrientation: 0
    m_LoopBlendPositionY: 0
    m_LoopBlendPositionXZ: 0
    m_KeepOriginalOrientation: 0
    m_KeepOriginalPositionY: 1
    m_KeepOriginalPositionXZ: 0
    m_HeightFromFeet: 0
    m_Mirror: 0
  m_EditorCurves: []
  m_EulerEditorCurves: []
  m_HasGenericRootTransform: 0
  m_HasMotionFloatCurves: 0
  m_GenerateMotionCurves: 0
  m_Events: []
