%YAML 1.1
%TAG !u! tag:unity3d.com,2011:
--- !u!114 &11400000
MonoBehaviour:
  m_ObjectHideFlags: 0
  m_PrefabParentObject: {fileID: 0}
  m_PrefabInternal: {fileID: 0}
  m_GameObject: {fileID: 0}
  m_Enabled: 1
  m_EditorHideFlags: 0
  m_Script: {fileID: 2108210716, guid: 89f0137620f6af44b9ba852b4190e64e, type: 3}
  m_Name: Gold Gradient
  m_EditorClassIdentifier: 
  topLeft: {r: 1, g: 0.78039217, b: 0.34117648, a: 1}
  topRight: {r: 1, g: 0.78039217, b: 0.34117648, a: 1}
  bottomLeft: {r: 0.8396226, g: 0.5754815, b: 0.13861692, a: 1}
  bottomRight: {r: 0.8392157, g: 0.5764706, b: 0.13725491, a: 1}
